,train_loss,train_acc,train_time,val_loss,val_acc,val_time
0,1.9567415589459967,0.37413797094503465,1421.4235734939575,1.879828360281795,0.4034638554216867,210.9115126132965
1,1.9158323971659985,0.3890267749699158,1437.1085937023163,1.8816358181367439,0.40677710843373494,234.72438311576843
2,1.8987434829902419,0.39185585025989333,1398.796229839325,1.883153221118881,0.40512048192771083,224.05514788627625
3,1.8893427516005386,0.39766152922140274,1363.176675081253,1.8494588711175575,0.4170180722891566,229.53517699241638
4,1.8774092273448204,0.4011935342089794,1403.9410078525543,1.8339593286973885,0.41490963855421686,231.4310429096222
5,1.8690193398047583,0.40252707581227437,1390.8410730361938,1.8487623045243413,0.40873493975903613,232.72918391227722
6,1.8658425301564443,0.4013265991038794,1391.4690701961517,1.875852552953973,0.4135542168674699,227.3099570274353
7,1.856417755644531,0.4061545403999255,1331.1033794879913,1.8542671174888152,0.4233433734939759,211.2809500694275
8,1.8532603280495508,0.4052346570397112,1320.016871213913,1.8580885079969842,0.4114457831325301,210.49245595932007
9,1.8486713257076939,0.4089778302378603,1311.2834253311157,1.8456827985235007,0.4162650602409639,211.76944208145142
10,1.8387675448875564,0.4115407757201063,1304.7162985801697,1.8484403420643634,0.4150602409638554,211.58783173561096
